{
    "border": "pixel",
    "current_border_width": 3,
    "floating": "auto_off",
    "geometry": {
       "height": 1006,
       "width": 1846,
       "x": 1957,
       "y": 37
    },
    "marks": [],
    "name": "Krusader",
    "percent": 1,
    "swallows": [
       {
       "class": "^krusader$",
       "instance": "^krusader$",
       "machine": "^hera$",
       "title": "^Krusader$",
       "window_role": "^MainWindow\\#1$"
       }
    ],
    "type": "con"
}
